^D:\SKILLBOX\HOMEWORK_SBOX_C\HOMEWORK_SBOX_C\HELPERS.CPP
/c /ZI /JMC /nologo /W3 /WX- /diagnostics:column /sdl /Od /D _DEBUG /D _CONSOLE /D _UNICODE /D UNICODE /Gm- /EHsc /RTC1 /MDd /GS /fp:precise /Zc:wchar_t /Zc:forScope /Zc:inline /permissive- /Fo"X64\DEBUG\\" /Fd"X64\DEBUG\VC143.PDB" /external:W3 /Gd /TP /FC D:\SKILLBOX\HOMEWORK_SBOX_C\HOMEWORK_SBOX_C\HELPERS.CPP
^D:\SKILLBOX\HOMEWORK_SBOX_C\HOMEWORK_SBOX_C\MAIN.CPP
/c /ZI /JMC /nologo /W3 /WX- /diagnostics:column /sdl /Od /D _DEBUG /D _CONSOLE /D _UNICODE /D UNICODE /Gm- /EHsc /RTC1 /MDd /GS /fp:precise /Zc:wchar_t /Zc:forScope /Zc:inline /permissive- /Fo"X64\DEBUG\\" /Fd"X64\DEBUG\VC143.PDB" /external:W3 /Gd /TP /FC D:\SKILLBOX\HOMEWORK_SBOX_C\HOMEWORK_SBOX_C\MAIN.CPP
^K:\SKILLBOX\HOMEWORK_SBOX_C\HOMEWORK_SBOX_C\HOMEWORK_SBOX_C\HELPERS.CPP
/c /ZI /JMC /nologo /W3 /WX- /diagnostics:column /sdl /Od /D _DEBUG /D _CONSOLE /D _UNICODE /D UNICODE /Gm- /EHsc /RTC1 /MDd /GS /fp:precise /Zc:wchar_t /Zc:forScope /Zc:inline /permissive- /Fo"X64\DEBUG\\" /Fd"X64\DEBUG\VC143.PDB" /external:W3 /Gd /TP /FC K:\SKILLBOX\HOMEWORK_SBOX_C\HOMEWORK_SBOX_C\HOMEWORK_SBOX_C\HELPERS.CPP
^K:\SKILLBOX\HOMEWORK_SBOX_C\HOMEWORK_SBOX_C\HOMEWORK_SBOX_C\MAIN.CPP
/c /ZI /JMC /nologo /W3 /WX- /diagnostics:column /sdl /Od /D _DEBUG /D _CONSOLE /D _UNICODE /D UNICODE /Gm- /EHsc /RTC1 /MDd /GS /fp:precise /Zc:wchar_t /Zc:forScope /Zc:inline /permissive- /Fo"X64\DEBUG\\" /Fd"X64\DEBUG\VC143.PDB" /external:W3 /Gd /TP /FC K:\SKILLBOX\HOMEWORK_SBOX_C\HOMEWORK_SBOX_C\HOMEWORK_SBOX_C\MAIN.CPP
