^K:\SKILLBOX\HOMEWORK_SBOX_C\HOMEWORK_SBOX_C\HOMEWORK_SBOX_C\X64\DEBUG\HELPERS.OBJ|K:\SKILLBOX\HOMEWORK_SBOX_C\HOMEWORK_SBOX_C\HOMEWORK_SBOX_C\X64\DEBUG\MAIN.OBJ
K:\SKILLBOX\HOMEWORK_SBOX_C\HOMEWORK_SBOX_C\X64\DEBUG\HOMEWORK_SBOX_C.EXE
K:\SKILLBOX\HOMEWORK_SBOX_C\HOMEWORK_SBOX_C\HOMEWORK_SBOX_C\X64\DEBUG\HOMEWORK_SBOX_C.ILK
K:\SKILLBOX\HOMEWORK_SBOX_C\HOMEWORK_SBOX_C\X64\DEBUG\HOMEWORK_SBOX_C.PDB
