^D:\SKILLBOX\HOMEWORK_SBOX_C\HOMEWORK_SBOX_C\X64\DEBUG\MAIN.OBJ
/OUT:"D:\SKILLBOX\HOMEWORK_SBOX_C\X64\DEBUG\HOMEWORK_SBOX_C.EXE" /INCREMENTAL /ILK:"X64\DEBUG\HOMEWORK_SBOX_C.ILK" /NOLOGO KERNEL32.LIB USER32.LIB GDI32.LIB WINSPOOL.LIB COMDLG32.LIB ADVAPI32.LIB SHELL32.LIB OLE32.LIB OLEAUT32.LIB UUID.LIB ODBC32.LIB ODBCCP32.LIB /MANIFEST /MANIFESTUAC:"level='asInvoker' uiAccess='false'" /manifest:embed /DEBUG /PDB:"D:\SKILLBOX\HOMEWORK_SBOX_C\X64\DEBUG\HOMEWORK_SBOX_C.PDB" /SUBSYSTEM:CONSOLE /TLBID:1 /DYNAMICBASE /NXCOMPAT /IMPLIB:"D:\SKILLBOX\HOMEWORK_SBOX_C\X64\DEBUG\HOMEWORK_SBOX_C.LIB" /MACHINE:X64 X64\DEBUG\MAIN.OBJ
^D:\SKILLBOX\HOMEWORK_SBOX_C\HOMEWORK_SBOX_C\X64\DEBUG\HELPERS.OBJ|D:\SKILLBOX\HOMEWORK_SBOX_C\HOMEWORK_SBOX_C\X64\DEBUG\MAIN.OBJ
/OUT:"D:\SKILLBOX\HOMEWORK_SBOX_C\X64\DEBUG\HOMEWORK_SBOX_C.EXE" /INCREMENTAL /ILK:"X64\DEBUG\HOMEWORK_SBOX_C.ILK" /NOLOGO KERNEL32.LIB USER32.LIB GDI32.LIB WINSPOOL.LIB COMDLG32.LIB ADVAPI32.LIB SHELL32.LIB OLE32.LIB OLEAUT32.LIB UUID.LIB ODBC32.LIB ODBCCP32.LIB /MANIFEST /MANIFESTUAC:"level='asInvoker' uiAccess='false'" /manifest:embed /DEBUG /PDB:"D:\SKILLBOX\HOMEWORK_SBOX_C\X64\DEBUG\HOMEWORK_SBOX_C.PDB" /SUBSYSTEM:CONSOLE /TLBID:1 /DYNAMICBASE /NXCOMPAT /IMPLIB:"D:\SKILLBOX\HOMEWORK_SBOX_C\X64\DEBUG\HOMEWORK_SBOX_C.LIB" /MACHINE:X64 X64\DEBUG\HELPERS.OBJ
X64\DEBUG\MAIN.OBJ
^K:\SKILLBOX\HOMEWORK_SBOX_C\HOMEWORK_SBOX_C\HOMEWORK_SBOX_C\X64\DEBUG\HELPERS.OBJ|K:\SKILLBOX\HOMEWORK_SBOX_C\HOMEWORK_SBOX_C\HOMEWORK_SBOX_C\X64\DEBUG\MAIN.OBJ
/OUT:"K:\SKILLBOX\HOMEWORK_SBOX_C\HOMEWORK_SBOX_C\X64\DEBUG\HOMEWORK_SBOX_C.EXE" /INCREMENTAL /ILK:"X64\DEBUG\HOMEWORK_SBOX_C.ILK" /NOLOGO KERNEL32.LIB USER32.LIB GDI32.LIB WINSPOOL.LIB COMDLG32.LIB ADVAPI32.LIB SHELL32.LIB OLE32.LIB OLEAUT32.LIB UUID.LIB ODBC32.LIB ODBCCP32.LIB /MANIFEST /MANIFESTUAC:"level='asInvoker' uiAccess='false'" /manifest:embed /DEBUG /PDB:"K:\SKILLBOX\HOMEWORK_SBOX_C\HOMEWORK_SBOX_C\X64\DEBUG\HOMEWORK_SBOX_C.PDB" /SUBSYSTEM:CONSOLE /TLBID:1 /DYNAMICBASE /NXCOMPAT /IMPLIB:"K:\SKILLBOX\HOMEWORK_SBOX_C\HOMEWORK_SBOX_C\X64\DEBUG\HOMEWORK_SBOX_C.LIB" /MACHINE:X64 X64\DEBUG\HELPERS.OBJ
X64\DEBUG\MAIN.OBJ
